[
    {
        "ServiceID": "FACE1",
        "ServiceName": "Blueberry Facial",
        "Description": "Exfoliating bluebrry facial for your furball with the finest organic, edible ingredients.",
        "Price": "250.00",
        "Minutes": "110",
        "CategoryName": "Facials",
		"Image": "assets/FACE/blue_facial.jfif"
    },
    {
        "ServiceID": "FACE2",
        "ServiceName": "Cleansing Tear Stain Treatment",
        "Description": "A cleansing treatment to help reduce beard and tear staining. Especially popular for light and white coloured dogs such as Bichons, Westies and Poodles.",
        "Price": "120.00",
        "Minutes": "50",
        "CategoryName": "Facials",
		"Image": "assets/FACE/tear_stain.jfif"
    },
    {
        "ServiceID": "FACE3",
        "ServiceName": "Wrinkly Dog Facial",
        "Description": "A special facial tailored specifically for breeds with skin folds, such as Shar-pei dogs.",
        "Price": "175.00",
        "Minutes": "80",
        "CategoryName": "Facials",
		"Image": "assets/FACE/sharpei.jfif"
    },
    {
        "ServiceID": "MASS1",
        "ServiceName": "Paw Massage",
        "Description": "Treatment includes a milk thistle and vanilla paw soak and a gentle vitamin E butter paw pad massage",
        "Price": "40.00",
        "Minutes": "80",
        "CategoryName": "Massages for Pets",
		"Image": "assets/MASS/paw_mass.jfif"
    },    
    {
        "ServiceID": "MASS2",
        "ServiceName": "Face and Neck Massage",
        "Description": "A massage for the face and neck to relieve stress and release restrictions in soft tissues.",
        "Price": "40.00",
        "Minutes": "110",
        "CategoryName": "Massages for Pets",
		"Image": "assets/MASS/face_mass.jfif"
    },      
    {
        "ServiceID": "MASS3",
        "ServiceName": "Thai Massage for your pet",
        "Description": "Stretching, palming and pressure points... you will feel great!",
        "Price": "90.00",
        "Minutes": "80",
        "CategoryName": "Massages for Pets",
		"Image": "assets/MASS/thai_mass.jfif"
    },    
    {
        "ServiceID": "MASS4",
        "ServiceName": "Deep body Joint Massage",
        "Description": "Deep body massage for pets with focus on joints.",
        "Price": "55.00",
        "Minutes": "50",
        "CategoryName": "Massages for Pets",
		"Image": "assets/MASS/deep_mass.jfif"
    },    
    {
        "ServiceID": "MASS5",
        "ServiceName": "Basic Pet Massage",
        "Description": "Basic 30 minute pet massage session.",
        "Price": "30.00",
        "Minutes": "30",
        "CategoryName": "Massages for Pets",
		"Image": "assets/MASS/basic_mass.jfif"
    },       
    {
        "ServiceID": "ACU1",
        "ServiceName": "Pain Management Acupuncture",
        "Description": "There are many different types of pain that can be caused by a variety of conditions from injuries to disease. There are specific acupuncture points for pain relief that are usually combined with acupoints for the more specific problem.",
        "Price": "280.00",
        "Minutes": "110",
        "CategoryName": "Acupuncture",
		"Image": "assets/ACU/pain_acu.jfif"
    },    
    {
        "ServiceID": "ACU2",
        "ServiceName": "Gastrointestinal Distress Acupuncture",
        "Description": "Focuses on getting your pet's gastrointestinal systems under control.",
        "Price": "140.00",
        "Minutes": "50",
        "CategoryName": "Acupuncture",
		"Image": "assets/ACU/stomach_acu.jfif"
    },    
    {
        "ServiceID": "ACU3",
        "ServiceName": "Better Sleep",
        "Description": "Actupuncture that results in better sleep for your pet.",
        "Price": "210.00",
        "Minutes": "80",
        "CategoryName": "Acupuncture",
		"Image": "assets/ACU/sleepy_dog.jfif"
    },    
    {
        "ServiceID": "HAIR1",
        "ServiceName": "Basic Hair Cut - Cats",
        "Description": "Basic wash, cut and dry for cats.",
        "Price": "50.00",
        "Minutes": "45",
        "CategoryName": "Haircuts and Styling",
		"Image": "assets/HAIR/cat_cut.jfif"
    },    
    {
        "ServiceID": "HAIR2",
        "ServiceName": "Basic Hair Cut - Dogs",
        "Description": "Basic wash, cut and dry for dogs.",
        "Price": "50.00",
        "Minutes": "60",
        "CategoryName": "Haircuts and Styling",
		"Image": "assets/HAIR/dog_grooming_curlers.jpg"
    },    
    {
        "ServiceID": "HAIR3",
        "ServiceName": "Comb Cut for Long-Haired Cats",
        "Description": "This is the most common haircut for cats and involves trimming a longhaired cat’s coat down to roughly 1 inch in length. This can help reduce matting and decreases the risk of your cat getting hairballs.",
        "Price": "50.00",
        "Minutes": "80",
        "CategoryName": "Haircuts and Styling",
		"Image": "assets/HAIR/cat_fur_comb.jfif"
    },
    {
        "ServiceID": "HAIR4",
        "ServiceName": "Belly Cut for Cats",
        "Description": "This haircut involves clipping the hair on a cat’s belly and between their rear legs. These areas often get uncomfortably matted on longhaired cats",
        "Price": "50.00",
        "Minutes": "80",
        "CategoryName": "Haircuts and Styling",
		"Image": "assets/HAIR/belly_cat.jfif"
    },
	    {
        "ServiceID": "HAIR5",
        "ServiceName": "Specialty Lion Cut",
        "Description": "Be the talk of the Pride with this special lion cut.",
        "Price": "110.00",
        "Minutes": "80",
        "CategoryName": "Haircuts and Styling",
		"Image": "assets/HAIR/lion_cut.jfif"
    }, 
		    {
        "ServiceID": "HAIR6",
        "ServiceName": "Specialty Wolf Cut",
        "Description": "Be the leader of the pack with this special wolf cut.",
        "Price": "110.00",
        "Minutes": "80",
        "CategoryName": "Haircuts and Styling",
		"Image": "assets/HAIR/wolf_cut.jfif"
    },
    {
        "ServiceID": "HAIR7",
        "ServiceName": "Fur Dye",
        "Description": "Organic, safe dye is used to dye your pet's coat a color of your choice.",
        "Price": "100.00",
        "Minutes": "80",
        "CategoryName": "Haircuts and Styling",
		"Image": "assets/HAIR/color_cut.jfif"
    }, 	
    {
        "ServiceID": "NAIL1",
        "ServiceName": "Basic Nail Trim - Cats",
        "Description": "Basic trim for cats",
        "Price": "65.00",
        "Minutes": "75",
        "CategoryName": "Peticures and Nails",
		"Image": "assets/NAIL/cat_claws.jfif"
    },    
    {
        "ServiceID": "NAIL2",
        "ServiceName": "Basic Nail Trim - Dogs",
        "Description": "Basic trim for dogs",
        "Price": "75.00",
        "Minutes": "50",
        "CategoryName": "Peticures and Nails",
		"Image": "assets/NAIL/dog_nails.jfif"
    },    
    {
        "ServiceID": "NAIL3",
        "ServiceName": "Deluxe Peticure with paw soak",
        "Description": " Treatment includes a milk thistle and vanilla paw soak, nail trim and file, between pads and paw trim, steam towel paw wrap and a gentle vitamin E butter paw pad massage. ",
        "Price": "100.00",
        "Minutes": "75",
        "CategoryName": "Peticures and Nails",
		"Image": "assets/NAIL/paws.jfif"
    },    
    {
        "ServiceID": "BATH1",
        "ServiceName": "Fur Shampoo and Deep Conditioning Treatment",
        "Description": "Perfect for dull, lifeless coats this conditioning treatment uses shea butter, coconut oil and rose oil to hydrate the hair and skin. It reduces loss of protein, regains hair’s natural moisture, improves elasticity, prevents breakage and adds texture, body and sheen.",
        "Price": "110.00",
        "Minutes": "80",
        "CategoryName": "Baths and Coat Treatments",
		"Image": "assets/BATH/kitten_bath.jpg"
    },    
    {
        "ServiceID": "BATH2",
        "ServiceName": "Mountain Mud Wrap",
        "Description": "Nourish, strengthen, and encourage healthy cell regeneration with a therapeutic mud body treatment. As the mud detoxifies dead skin cells are replaced with nourishing minerals and soothing relief, boosting your dog’s ability to fight infections, dry skin, and other irritations.",
        "Price": "120.00",
        "Minutes": "60",
        "CategoryName": "Baths and Coat Treatments",
	"Image": "assets/BATH/mud_puppy.jfif"
		
    },    
    {
        "ServiceID": "BATH3",
        "ServiceName": "Spa Bath",
        "Description": "Soothe and relax tired muscles in a spa bath infused with green tea and aloe vera. The spa bath releases thousands of tiny bubbles per minute to massage the skin and relax joints and muscles for an immediate sense of well-being.",
        "Price": "75.00",
        "Minutes": "30",
        "CategoryName": "Baths and Coat Treatments",
	"Image": "assets/BATH/cat-spa.jpg"
    },    
    {
        "ServiceID": "BATH4",
        "ServiceName": "Deluxe Bath and Deep Conditioning Package",
        "Description": "Includes our spa bath and deep conditioning fur treatment.",
        "Price": "160.00",
        "Minutes": "110",
        "CategoryName": "Baths and Coat Treatments",
		"Image": "assets/BATH/dog_grooming_girl.jpg"
    }
]